5.134.117.111:28000
bfg10k.traxo.net:28000
bfg9000.traxo.net:28000
butt.se:30000
dal.us.quake.rocks:28000
escaflowne.hro.nl:28000
feffsson.se:28000
fnu.nu:28000
goodolddays.traxo.net:28000
qtv.besmella.com:28000
qtv.froschroom.com:28000
qtv.quakeservers.net:28000
quakeworld.fi:28000
qw.baseq.fr:28000
qw.dybbuk.de:28000
qw.hb0da.org:28000
qw.net.pl:28000
qw1.irc.ax:27510
sp.granitobranco.com.br:28000
welp.se:28000
woohooyeah.nl:28000
